// Cloth_4Quads genrated by blender2ogre 0.5.9

material Cloth_4Quads 
{
    receive_shadows on 

    technique
    {
        pass Cloth_4Quads
        {
            ambient 0.7751035690307617 0.8000000715255737 0.7285495400428772 1.0
            diffuse 0.620082864464564 0.640000066757203 0.5828396407192891 1.0
            specular 0.5 0.5 0.5 1.0 12.5
            emissive 0.0 0.0 0.0 1.0

            alpha_to_coverage off
            colour_write on
            cull_hardware none
            depth_check on
            depth_func less_equal
            depth_write on
            illumination_stage 
            light_clip_planes off
            light_scissor off
            lighting on
            normalise_normals off
            polygon_mode solid
            scene_blend one zero
            scene_blend_op add
            shading gouraud
            transparent_sorting on

            texture_unit 
            {
                texture cotton.jpg
                tex_address_mode wrap
                scale 1.0 1.0
                colour_op modulate
            }
        }
    }
}
