material debug_draw
{
   technique
   {
      pass
      {
         lighting off
         scene_blend alpha_blend
         depth_check off
         depth_write off
         ambient vertexcolour
         diffuse vertexcolour
         specular vertexcolour
      }
   }
}

material Cartwheel/CollisionObjects
{
	technique
	{
		pass
		{
			depth_check off
		}
	}
}

