
{
	"Common" : {
		"name":"ArmyMan-lowerArm",
		"tetgenBaseFilename":"ArmyMan-FEMLowerArm.1",
		"timestep":0.01
	},

	"TetraParams" : {
		"youngsModulus":100,
		"poissonsRatio":0.35,
		"density":8,
		"forceModelType":"CorotationalLinearFEM",
		"invertible":1,
		"compressionResistance":10,
		"dampingMassCoefficient":0,
		"dampingStiffnessCoefficient":0.01
	},

	"MeshConstraint" : {
		"entityName":"ArmyMan.entity",
		"shared":true,
		"sceneNodeName":"ArmyMan.sceneNode",
		"vertexGroupsFile":"ArmyMan.mesh.vertexGroups",
		"vertexGroup":"x.lowerArmFEMAttach",
		"useSkeleton":true,
		"usePDControllers":0,
		"trackKp":2000,
		"trackKd":5
	},

	"Target" : {
		"entityName":"ArmyMan.entity",
		"shared":true,
		"sceneNodeName":"ArmyMan.sceneNode",
		"vertexGroupsFile":"ArmyMan.mesh.vertexGroups",
		"vertexGroup":"x.lowerArm",
		"useSkeleton":false,
		"restBoneName":"rest"
	}
}


	

	

