# Blender v2.72 (sub 0) OBJ File: 'Cloth_1Quad.blend'
# www.blender.org
mtllib Cloth_1Quad.mtl
o Cloth_1Quad
v -1.000000 1.800000 -1.000000
v -1.000000 1.800000 0.000000
v 0.000000 1.800000 -1.000000
v 0.000000 1.800000 0.000000
vt 0.500000 0.999900
vt 0.109318 0.999900
vt 0.109318 0.500000
vt 0.500000 0.500000
usemtl Cloth_1Quad
s off
f 3/1 1/2 2/3 4/4
