# Blender v2.72 (sub 0) OBJ File: 'ClothTest.blend'
# www.blender.org
mtllib ClothTest.mtl
o ClothTest
v -1.000000 1.000000 1.000000
v 1.000000 1.000000 1.000000
v -1.000000 1.000000 -1.000000
v 1.000000 1.000000 -1.000000
v -1.000000 1.000000 0.000000
v 0.000000 1.000000 1.000000
v 1.000000 1.000000 0.000000
v 0.000000 1.000000 -1.000000
v 0.000000 1.000000 0.000000
v -1.000000 1.000000 0.500000
v 0.500000 1.000000 1.000000
v 1.000000 1.000000 -0.500000
v -0.500000 1.000000 -1.000000
v -1.000000 1.000000 -0.500000
v -0.500000 1.000000 1.000000
v 1.000000 1.000000 0.500000
v 0.500000 1.000000 -1.000000
v 0.000000 1.000000 -0.500000
v 0.000000 1.000000 0.500000
v -0.500000 1.000000 0.000000
v 0.500000 1.000000 0.000000
v 0.500000 1.000000 -0.500000
v -0.500000 1.000000 -0.500000
v -0.500000 1.000000 0.500000
v 0.500000 1.000000 0.500000
v -1.000000 1.000000 0.750000
v 0.750000 1.000000 1.000000
v 1.000000 1.000000 -0.750000
v -0.750000 1.000000 -1.000000
v -1.000000 1.000000 -0.250000
v -0.250000 1.000000 1.000000
v 1.000000 1.000000 0.250000
v 0.250000 1.000000 -1.000000
v 0.000000 1.000000 -0.750000
v 0.000000 1.000000 0.250000
v -0.750000 1.000000 0.000000
v 0.250000 1.000000 0.000000
v -1.000000 1.000000 0.250000
v 0.250000 1.000000 1.000000
v 1.000000 1.000000 -0.250000
v -0.250000 1.000000 -1.000000
v -1.000000 1.000000 -0.750000
v -0.750000 1.000000 1.000000
v 1.000000 1.000000 0.750000
v 0.750000 1.000000 -1.000000
v 0.000000 1.000000 -0.250000
v 0.000000 1.000000 0.750000
v -0.250000 1.000000 0.000000
v 0.750000 1.000000 0.000000
v 0.500000 1.000000 -0.750000
v 0.500000 1.000000 -0.250000
v 0.250000 1.000000 -0.500000
v 0.750000 1.000000 -0.500000
v -0.500000 1.000000 -0.750000
v -0.500000 1.000000 -0.250000
v -0.750000 1.000000 -0.500000
v -0.250000 1.000000 -0.500000
v -0.500000 1.000000 0.250000
v -0.500000 1.000000 0.750000
v -0.750000 1.000000 0.500000
v -0.250000 1.000000 0.500000
v 0.500000 1.000000 0.250000
v 0.500000 1.000000 0.750000
v 0.250000 1.000000 0.500000
v 0.750000 1.000000 0.500000
v 0.750000 1.000000 -0.750000
v -0.250000 1.000000 -0.750000
v -0.250000 1.000000 0.250000
v 0.750000 1.000000 0.250000
v 0.250000 1.000000 -0.750000
v 0.250000 1.000000 -0.250000
v 0.750000 1.000000 -0.250000
v -0.750000 1.000000 -0.750000
v -0.750000 1.000000 -0.250000
v -0.250000 1.000000 -0.250000
v -0.750000 1.000000 0.250000
v -0.750000 1.000000 0.750000
v -0.250000 1.000000 0.750000
v 0.250000 1.000000 0.250000
v 0.250000 1.000000 0.750000
v 0.750000 1.000000 0.750000
vt 0.793011 0.874925
vt 0.890682 0.874925
vt 0.890682 0.999900
vt 0.793011 0.999900
vt 0.402330 0.874925
vt 0.500000 0.874925
vt 0.500000 0.999900
vt 0.402330 0.999900
vt 0.402330 0.375025
vt 0.500000 0.375025
vt 0.500000 0.500000
vt 0.402330 0.500000
vt 0.793011 0.375025
vt 0.890682 0.375025
vt 0.890682 0.500000
vt 0.793011 0.500000
vt 0.597671 0.874925
vt 0.695341 0.874925
vt 0.695341 0.999900
vt 0.597671 0.999900
vt 0.597670 0.624975
vt 0.695341 0.624975
vt 0.695341 0.749950
vt 0.597670 0.749950
vt 0.793011 0.624975
vt 0.890682 0.624975
vt 0.890682 0.749950
vt 0.793011 0.749950
vt 0.206989 0.874925
vt 0.304659 0.874925
vt 0.304659 0.999900
vt 0.206989 0.999900
vt 0.206989 0.624975
vt 0.304659 0.624975
vt 0.304659 0.749950
vt 0.206989 0.749950
vt 0.402330 0.624975
vt 0.500000 0.624975
vt 0.500000 0.749950
vt 0.402330 0.749950
vt 0.206989 0.375025
vt 0.304659 0.375025
vt 0.304659 0.500000
vt 0.206989 0.500000
vt 0.206989 0.125075
vt 0.304659 0.125075
vt 0.304659 0.250050
vt 0.206989 0.250050
vt 0.402329 0.125075
vt 0.500000 0.125075
vt 0.500000 0.250050
vt 0.402329 0.250050
vt 0.597670 0.375025
vt 0.695341 0.375025
vt 0.695341 0.500000
vt 0.597670 0.500000
vt 0.597670 0.125075
vt 0.695341 0.125075
vt 0.695341 0.250050
vt 0.597670 0.250050
vt 0.793011 0.125075
vt 0.890682 0.125075
vt 0.890682 0.250050
vt 0.793011 0.250050
vt 0.109318 0.874925
vt 0.109318 0.999900
vt 0.109318 0.749950
vt 0.109318 0.624975
vt 0.109318 0.500000
vt 0.109318 0.375025
vt 0.109318 0.250050
vt 0.109318 0.125075
vt 0.109318 0.000100
vt 0.206989 0.000100
vt 0.304659 0.000100
vt 0.402329 0.000100
vt 0.500000 0.000100
vt 0.597670 0.000100
vt 0.695341 0.000100
vt 0.793011 0.000100
vt 0.890682 0.000100
usemtl ClothTest
s off
f 66/1 28/2 4/3 45/4
f 67/5 34/6 8/7 41/8
f 68/9 35/10 9/11 48/12
f 69/13 32/14 7/15 49/16
f 70/17 50/18 17/19 33/20
f 71/21 51/22 22/23 52/24
f 72/25 40/26 12/27 53/28
f 73/29 54/30 13/31 29/32
f 74/33 55/34 23/35 56/36
f 75/37 46/38 18/39 57/40
f 76/41 58/42 20/43 36/44
f 77/45 59/46 24/47 60/48
f 78/49 47/50 19/51 61/52
f 79/53 62/54 21/55 37/56
f 80/57 63/58 25/59 64/60
f 81/61 44/62 16/63 65/64
f 50/18 66/1 45/4 17/19
f 22/23 53/28 66/1 50/18
f 53/28 12/27 28/2 66/1
f 54/30 67/5 41/8 13/31
f 23/35 57/40 67/5 54/30
f 57/40 18/39 34/6 67/5
f 58/42 68/9 48/12 20/43
f 24/47 61/52 68/9 58/42
f 61/52 19/51 35/10 68/9
f 62/54 69/13 49/16 21/55
f 25/59 65/64 69/13 62/54
f 65/64 16/63 32/14 69/13
f 34/6 70/17 33/20 8/7
f 18/39 52/24 70/17 34/6
f 52/24 22/23 50/18 70/17
f 46/38 71/21 52/24 18/39
f 9/11 37/56 71/21 46/38
f 37/56 21/55 51/22 71/21
f 51/22 72/25 53/28 22/23
f 21/55 49/16 72/25 51/22
f 49/16 7/15 40/26 72/25
f 42/65 73/29 29/32 3/66
f 14/67 56/36 73/29 42/65
f 56/36 23/35 54/30 73/29
f 30/68 74/33 56/36 14/67
f 5/69 36/44 74/33 30/68
f 36/44 20/43 55/34 74/33
f 55/34 75/37 57/40 23/35
f 20/43 48/12 75/37 55/34
f 48/12 9/11 46/38 75/37
f 38/70 76/41 36/44 5/69
f 10/71 60/48 76/41 38/70
f 60/48 24/47 58/42 76/41
f 26/72 77/45 60/48 10/71
f 1/73 43/74 77/45 26/72
f 43/74 15/75 59/46 77/45
f 59/46 78/49 61/52 24/47
f 15/75 31/76 78/49 59/46
f 31/76 6/77 47/50 78/49
f 35/10 79/53 37/56 9/11
f 19/51 64/60 79/53 35/10
f 64/60 25/59 62/54 79/53
f 47/50 80/57 64/60 19/51
f 6/77 39/78 80/57 47/50
f 39/78 11/79 63/58 80/57
f 63/58 81/61 65/64 25/59
f 11/79 27/80 81/61 63/58
f 27/80 2/81 44/62 81/61
